Homework 3 (Lista ARMA prática)
…
    if (df_res == 0) {
      df_res <- assets_item
    }
    else{
      df_res <- df_res %>%
        bind_rows(assets_item)
    }
  }
}

df_res %>%
    group_by(ticker) %>% 
    filter(prev.1ahead_aux1 == max(prev.1ahead_aux1))

## # A tibble: 561,083 × 11
## # Groups:   ticker [495]
##    price.open price.high price.low price.close  volume price.adjusted ref.date  
##         <dbl>      <dbl>     <dbl>       <dbl>   <dbl>          <dbl> <date>    
##  1       188.       191.      187.        191. 2475200           159. 2019-01-02
##  2       188.       188.      183.        184. 3358200           153. 2019-01-03
##  3       187.       192.      186.        191. 2995100           159. 2019-01-04
##  4       191.       192.      189.        191. 2162200           159. 2019-01-07
##  5       193        194.      190.        192. 2479800           159. 2019-01-08
##  6       193.       194.      191.        192. 2163600           160. 2019-01-09
##  7       191.       194.      189.        194. 1939300           161. 2019-01-10
##  8       192.       193.      191.        192. 2359900           160. 2019-01-11
##  9       191.       193.      190.        192. 1914400           160. 2019-01-14
## 10       189.       191.      188.        189. 2737300           157. 2019-01-15
## # ℹ 561,073 more rows
## # ℹ 4 more variables: ticker <chr>, ret.adjusted.prices <dbl>,
## #   ret.closing.prices <dbl>, prev.1ahead_aux1 <dbl>
…
